Aggregate Statistic – Team Windows Website
…
ML_eight <- ML_eight %>% mutate(scaled_aggregate = scale_aggregate(aggregate_stat))
ML_thirteen <- ML_thirteen %>% mutate(scaled_aggregate = scale_aggregate(aggregate_stat))
ML_eighteen <- ML_eighteen %>% mutate(scaled_aggregate = scale_aggregate(aggregate_stat))

ML_eight

# A tibble: 18,449 × 18
   EVENT_ID STATE   YEAR MONTH_NAME EVENT_TYPE INJURIES_DIRECT INJURIES_INDIRECT
      <dbl> <chr>  <dbl> <chr>      <chr>                <dbl>             <dbl>
 1    67398 ARKAN…  2008 January    Thunderst…               0                 0
 2   143292 ILLIN…  2008 December   Thunderst…               0                 0
 3   143294 LAKE …  2008 December   Marine Th…               0                 0
 4   143297 INDIA…  2008 December   Thunderst…               0                 0
 5    74159 SOUTH…  2008 March      Thunderst…               0                 0
 6    74161 SOUTH…  2008 March      Thunderst…               0                 0
 7    86789 SOUTH…  2008 May        Thunderst…               0                 0
 8   139305 WISCO…  2008 July       Thunderst…               0                 0
 9   139307 MINNE…  2008 July       Thunderst…               0                 0
10   139308 MINNE…  2008 July       Thunderst…               0                 0
# ℹ 18,439 more rows
# ℹ 11 more variables: DEATHS_DIRECT <dbl>, DEATHS_INDIRECT <dbl>,
#   DAMAGE_PROPERTY <dbl>, DAMAGE_CROPS <dbl>, MAGNITUDE <dbl>,
#   MAGNITUDE_TYPE <chr>, storm_time_duration <drtn>, change_lon <dbl>,
#   change_lat <dbl>, aggregate_stat <dbl>, scaled_aggregate <dbl>

ML_thirteen

# A tibble: 15,783 × 18
   EVENT_ID STATE   YEAR MONTH_NAME EVENT_TYPE INJURIES_DIRECT INJURIES_INDIRECT
      <dbl> <chr>  <dbl> <chr>      <chr>                <dbl>             <dbl>
 1   453907 KANSAS  2013 June       Thunderst…               0                 0
 2   453909 KANSAS  2013 June       Thunderst…               0                 0
 3   453910 KANSAS  2013 June       Thunderst…               0                 0
 4   453911 KANSAS  2013 June       Thunderst…               0                 0
 5   453912 KANSAS  2013 June       Thunderst…               0                 0
 6   446362 TENNE…  2013 May        Thunderst…               0                 0
 7   446363 TENNE…  2013 May        Thunderst…               0                 0
 8   446364 TENNE…  2013 May        Thunderst…               0                 0
 9   446365 TENNE…  2013 May        Thunderst…               0                 0
10   456365 MICHI…  2013 May        Thunderst…               0                 0
# ℹ 15,773 more rows
# ℹ 11 more variables: DEATHS_DIRECT <dbl>, DEATHS_INDIRECT <dbl>,
#   DAMAGE_PROPERTY <dbl>, DAMAGE_CROPS <dbl>, MAGNITUDE <dbl>,
#   MAGNITUDE_TYPE <chr>, storm_time_duration <drtn>, change_lon <dbl>,
#   change_lat <dbl>, aggregate_stat <dbl>, scaled_aggregate <dbl>

ML_eighteen

# A tibble: 16,745 × 18
   EVENT_ID STATE   YEAR MONTH_NAME EVENT_TYPE INJURIES_DIRECT INJURIES_INDIRECT
      <dbl> <chr>  <dbl> <chr>      <chr>                <dbl>             <dbl>
 1   755273 VERMO…  2018 June       Thunderst…               0                 0
 2   755929 VERMO…  2018 June       Thunderst…               0                 0
 3   752077 KENTU…  2018 June       Thunderst…               0                 0
 4   749541 KENTU…  2018 June       Thunderst…               0                 0
 5   749892 KENTU…  2018 June       Thunderst…               0                 0
 6   752081 KENTU…  2018 June       Thunderst…               0                 0
 7   753166 NEBRA…  2018 June       Thunderst…               0                 0
 8   753167 NEBRA…  2018 June       Thunderst…               0                 0
 9   753168 NEBRA…  2018 June       Thunderst…               0                 0
10   753170 NEBRA…  2018 June       Thunderst…               0                 0
# ℹ 16,735 more rows
# ℹ 11 more variables: DEATHS_DIRECT <dbl>, DEATHS_INDIRECT <dbl>,
#   DAMAGE_PROPERTY <dbl>, DAMAGE_CROPS <dbl>, MAGNITUDE <dbl>,
#   MAGNITUDE_TYPE <chr>, storm_time_duration <drtn>, change_lon <dbl>,
#   change_lat <dbl>, aggregate_stat <dbl>, scaled_aggregate <dbl>
…
# Reformat Date, Add storm time duration and change in lat/lon values
combined_data <- combined_data %>% mutate(BEGIN_DATE_TIME = as.POSIXct(BEGIN_DATE_TIME, format = "%d-%b-%y %H:%M:%S"), END_DATE_TIME = as.POSIXct(END_DATE_TIME, format = "%d-%b-%y %H:%M:%S"), storm_time_duration = END_DATE_TIME - BEGIN_DATE_TIME, change_lon = END_LON - BEGIN_LON, change_lat = END_LAT - BEGIN_LAT)

# Remove redundant columns
combined_data <- combined_data %>% select(-BEGIN_LAT, -BEGIN_LON, -END_LAT, -END_LON, -BEGIN_DATE_TIME, -END_DATE_TIME)

# Aggregate Stat
combined_data <- combined_data %>% mutate(aggregate_stat = (INJURIES_DIRECT - min(INJURIES_DIRECT))/diff(range(INJURIES_DIRECT)) + (INJURIES_INDIRECT - min(INJURIES_INDIRECT))/diff(range(INJURIES_INDIRECT)) + (DEATHS_DIRECT - min(DEATHS_DIRECT))/diff(range(DEATHS_DIRECT)) + (DEATHS_INDIRECT - min(DEATHS_INDIRECT))/diff(range(DEATHS_INDIRECT)) + (DAMAGE_PROPERTY - min(DAMAGE_PROPERTY))/diff(range(DAMAGE_PROPERTY)) + (DAMAGE_CROPS - min(DAMAGE_CROPS))/diff(range(DAMAGE_CROPS)))

combined_data <- combined_data %>% mutate(scaled_aggregate = scale_aggregate(aggregate_stat))
combined_data

# A tibble: 50,977 × 18
   EVENT_ID STATE   YEAR MONTH_NAME EVENT_TYPE INJURIES_DIRECT INJURIES_INDIRECT
      <dbl> <chr>  <dbl> <chr>      <chr>                <dbl>             <dbl>
 1    67398 ARKAN…  2008 January    Thunderst…               0                 0
 2   143292 ILLIN…  2008 December   Thunderst…               0                 0
 3   143294 LAKE …  2008 December   Marine Th…               0                 0
 4   143297 INDIA…  2008 December   Thunderst…               0                 0
 5    74159 SOUTH…  2008 March      Thunderst…               0                 0
 6    74161 SOUTH…  2008 March      Thunderst…               0                 0
 7    86789 SOUTH…  2008 May        Thunderst…               0                 0
 8   139305 WISCO…  2008 July       Thunderst…               0                 0
 9   139307 MINNE…  2008 July       Thunderst…               0                 0
10   139308 MINNE…  2008 July       Thunderst…               0                 0
# ℹ 50,967 more rows
# ℹ 11 more variables: DEATHS_DIRECT <dbl>, DEATHS_INDIRECT <dbl>,
#   DAMAGE_PROPERTY <dbl>, DAMAGE_CROPS <dbl>, MAGNITUDE <dbl>,
#   MAGNITUDE_TYPE <chr>, storm_time_duration <drtn>, change_lon <dbl>,
#   change_lat <dbl>, aggregate_stat <dbl>, scaled_aggregate <dbl>
…
